\relax 
\select@language{english}
\@writefile{toc}{\select@language{english}}
\@writefile{lof}{\select@language{english}}
\@writefile{lot}{\select@language{english}}
\@writefile{toc}{\contentsline {section}{\numberline {1}Language Description}{1}}
\@writefile{toc}{\contentsline {section}{\numberline {2}Syntax \& Semantics}{2}}
\@writefile{toc}{\contentsline {section}{\numberline {3}AST}{4}}
\@writefile{toc}{\contentsline {section}{\numberline {4}Visitor Design Pattern}{4}}
\@writefile{toc}{\contentsline {section}{\numberline {5}Design of Interpreter}{5}}
\@writefile{toc}{\contentsline {section}{\numberline {6}Design of LLVM Code Generator}{5}}
